riscv-tests/test.vcd
$date
	Thu Nov 22 01:58:09 2018
$end
$version
	Icarus Verilog
$end
$timescale
	1ps
$end
$scope module toplevel $end
$scope module yarvi_soc $end
$var wire 1 ! bus_req_ready $end
$var wire 32 " bus_res_data [31:0] $end
$var wire 1 # bus_res_valid $end
$var wire 1 $ clock $end
$var wire 1 % reset $end
$var wire 8 & rx_data [7:0] $end
$var wire 1 ' rx_ready $end
$var wire 1 ( rx_valid $end
$var wire 1 ) tx_ready $end
$var wire 1 * tx_valid $end
$var wire 8 + tx_data [7:0] $end
$var wire 4 , htif_state [3:0] $end
$var wire 1 - bus_req_write $end
$var wire 1 . bus_req_read $end
$var wire 32 / bus_req_data [31:0] $end
$var wire 32 0 bus_req_address [31:0] $end
$var reg 1 1 htif_reset $end
$scope module htif $end
$var wire 1 ! bus_req_ready $end
$var wire 32 2 bus_res_data [31:0] $end
$var wire 1 # bus_res_valid $end
$var wire 1 $ clock $end
$var wire 8 3 rx_data [7:0] $end
$var wire 1 4 rx_go $end
$var wire 1 ( rx_valid $end
$var wire 1 5 tx_go $end
$var wire 1 ) tx_ready $end
$var reg 32 6 bus_req_address [31:0] $end
$var reg 32 7 bus_req_data [31:0] $end
$var reg 1 . bus_req_read $end
$var reg 1 - bus_req_write $end
$var reg 8 8 cmd [7:0] $end
$var reg 32 9 data [31:0] $end
$var reg 1 : rx_ready $end
$var reg 4 ; s [3:0] $end
$var reg 8 < tx_data [7:0] $end
$var reg 1 = tx_valid $end
$upscope $end
$scope module yarvi $end
$var wire 1 $ clock $end
$var wire 1 > me_ready $end
$var wire 64 ? rf_rs2_val [63:0] $end
$var wire 64 @ rf_rs1_val [63:0] $end
$var wire 39 A rf_pc [38:0] $end
$var wire 32 B rf_insn [31:0] $end
$var wire 1 C me_readdatavalid $end
$var wire 5 D me_readdatatag [4:0] $end
$var wire 64 E me_readdata [63:0] $end
$var wire 39 F fe_pc [38:0] $end
$var wire 32 G fe_insn [31:0] $end
$var wire 1 H ex_wben $end
$var wire 64 I ex_wb_val [63:0] $end
$var wire 5 J ex_wb_rd [4:0] $end
$var wire 1 K ex_valid $end
$var wire 39 L ex_restart_pc [38:0] $end
$var wire 1 M ex_restart $end
$var wire 2 N ex_prv [1:0] $end
$var wire 39 O ex_pc [38:0] $end
$var wire 1 P ex_mem_writeenable $end
$var wire 64 Q ex_mem_writedata [63:0] $end
$var wire 1 R ex_mem_valid $end
$var wire 2 S ex_mem_sizelg2 [1:0] $end
$var wire 5 T ex_mem_readtag [4:0] $end
$var wire 1 U ex_mem_readsignextend $end
$var wire 39 V ex_mem_address [38:0] $end
$var wire 32 W ex_insn [31:0] $end
$scope module disass $end
$var wire 1 $ clock $end
$var wire 1 X disass $end
$var wire 1 H we $end
$var wire 1 K valid $end
$var wire 64 Y uj_imm [63:0] $end
$var wire 52 Z sign52 [51:0] $end
$var wire 44 [ sign44 [43:0] $end
$var wire 1 \ sign $end
$var wire 64 ] sb_imm [63:0] $end
$var wire 64 ^ s_imm [63:0] $end
$var wire 2 _ prv [1:0] $end
$var wire 39 ` pc [38:0] $end
$var wire 32 a insn [31:0] $end
$var wire 64 b i_imm [63:0] $end
$var wire 64 c d [63:0] $end
$var wire 5 d addr [4:0] $end
$upscope $end
$scope module ex $end
$var wire 1 $ clock $end
$var wire 1 e ex_branch_taken $end
$var wire 64 f ex_rs1_val_cmp [63:0] $end
$var wire 64 g ex_rs2_val_cmp [63:0] $end
$var wire 1 > me_ready $end
$var wire 64 h rs2_val [63:0] $end
$var wire 64 i rs1_val [63:0] $end
$var wire 39 j pc [38:0] $end
$var wire 1 C me_readdatavalid $end
$var wire 5 k me_readdatatag [4:0] $end
$var wire 64 l me_readdata [63:0] $end
$var wire 32 m insn [31:0] $end
$var wire 64 n ex_uj_imm [63:0] $end
$var wire 64 o ex_sum_w [63:0] $end
$var wire 32 p ex_sum32 [31:0] $end
$var wire 52 q ex_sign52 [51:0] $end
$var wire 44 r ex_sign44 [43:0] $end
$var wire 1 s ex_sign $end
$var wire 64 t ex_sb_imm [63:0] $end
$var wire 64 u ex_s_imm [63:0] $end
$var wire 64 v ex_rs2_val_imm [63:0] $end
$var wire 64 w ex_rs2 [63:0] $end
$var wire 64 x ex_rs1 [63:0] $end
$var wire 64 y ex_i_imm [63:0] $end
$var wire 1 z ex_cmp_lt $end
$var wire 1 { ex_cmp_eq $end
$var reg 12 | csr_addr [11:0] $end
$var reg 64 } csr_d [63:0] $end
$var reg 5 ~ csr_fflags [4:0] $end
$var reg 3 !" csr_frm [2:0] $end
$var reg 64 "" csr_mcause [63:0] $end
$var reg 64 #" csr_mcycle [63:0] $end
$var reg 64 $" csr_medeleg [63:0] $end
$var reg 64 %" csr_mepc [63:0] $end
$var reg 64 &" csr_mideleg [63:0] $end
$var reg 8 '" csr_mie [7:0] $end
$var reg 64 (" csr_minstret [63:0] $end
$var reg 8 )" csr_mip [7:0] $end
$var reg 64 *" csr_mscratch [63:0] $end
$var reg 64 +" csr_mstatus [63:0] $end
$var reg 64 ," csr_mtime [63:0] $end
$var reg 64 -" csr_mtval [63:0] $end
$var reg 64 ." csr_mtvec [63:0] $end
$var reg 64 /" csr_satp [63:0] $end
$var reg 64 0" csr_stvec [63:0] $end
$var reg 64 1" csr_val [63:0] $end
$var reg 32 2" ex_insn [31:0] $end
$var reg 39 3" ex_mem_address [38:0] $end
$var reg 1 U ex_mem_readsignextend $end
$var reg 5 4" ex_mem_readtag [4:0] $end
$var reg 2 5" ex_mem_sizelg2 [1:0] $end
$var reg 1 R ex_mem_valid $end
$var reg 64 6" ex_mem_writedata [63:0] $end
$var reg 1 P ex_mem_writeenable $end
$var reg 2 7" ex_next_prv [1:0] $end
$var reg 39 8" ex_pc [38:0] $end
$var reg 2 9" ex_prv [1:0] $end
$var reg 1 M ex_restart $end
$var reg 39 :" ex_restart_pc [38:0] $end
$var reg 64 ;" ex_rs1_val [63:0] $end
$var reg 64 <" ex_rs2_val [63:0] $end
$var reg 1 K ex_valid $end
$var reg 5 =" ex_wb_rd [4:0] $end
$var reg 64 >" ex_wb_val [63:0] $end
$var reg 1 H ex_wben $end
$var reg 1 ?" reset $end
$var reg 1 @" rf_valid $end
$var reg 5 A" wb_wb_rd [4:0] $end
$var reg 64 B" wb_wb_val [63:0] $end
$var reg 1 C" wb_wben $end
$upscope $end
$scope module fe $end
$var wire 1 $ clock $end
$var wire 32 D" fe_insn [31:0] $end
$var wire 1 M restart $end
$var wire 39 E" restart_pc [38:0] $end
$var reg 39 F" fe_pc [38:0] $end
$upscope $end
$scope module me $end
$var wire 39 G" address [38:0] $end
$var wire 1 $ clock $end
$var wire 5 H" me_readdatatag [4:0] $end
$var wire 1 C me_readdatavalid $end
$var wire 1 > me_ready $end
$var wire 1 U readsignextend $end
$var wire 5 I" readtag [4:0] $end
$var wire 2 J" sizelg2 [1:0] $end
$var wire 1 R valid $end
$var wire 64 K" writedata [63:0] $end
$var wire 1 P writeenable $end
$var wire 64 L" me_readdata [63:0] $end
$var reg 1 M" pendingread $end
$var reg 5 N" pendingreadtag [4:0] $end
$var reg 64 O" readdata [63:0] $end
$upscope $end
$scope module rf $end
$var wire 5 P" addr [4:0] $end
$var wire 1 $ clock $end
$var wire 64 Q" d [63:0] $end
$var wire 32 R" insn [31:0] $end
$var wire 39 S" pc [38:0] $end
$var wire 1 H we $end
$var wire 64 T" rf_rs2_val [63:0] $end
$var wire 64 U" rf_rs1_val [63:0] $end
$var reg 6 V" i [5:0] $end
$var reg 32 W" rf_insn [31:0] $end
$var reg 39 X" rf_pc [38:0] $end
$var reg 5 Y" rp1 [4:0] $end
$var reg 5 Z" rp2 [4:0] $end
$upscope $end
$upscope $end
$upscope $end
$upscope $end
$enddefinitions $end
#0
$dumpvars
b1100 Z"
b0 Y"
b10000000000000000000000000000000 X"
b100110000000000000001101111 W"
b100000 V"
b0 U"
b1100 T"
b10000000000000000000000000000100 S"
b110100001000000010111101110011 R"
bx Q"
bx P"
bx O"
bx N"
0M"
b0 L"
b0 K"
b0 J"
b0 I"
bx H"
b0 G"
b10000000000000000000000000000100 F"
bx E"
b110100001000000010111101110011 D"
0C"
bx B"
bx A"
1@"
0?"
bx >"
bx ="
b0 <"
b0 ;"
bx :"
b11 9"
bx 8"
b11 7"
b0 6"
b0 5"
b0 4"
b0 3"
bx 2"
b0 1"
b100000000 0"
b0 /"
b100000000 ."
b0 -"
b0 ,"
b110 +"
b0 *"
b0 )"
b0 ("
b0 '"
b0 &"
b0 %"
b0 $"
b0 #"
b0 ""
b0 !"
b0 ~
bx }
b111111111111 |
1{
xz
bx y
b0 x
b0 w
bx v
bx u
bx0 t
xs
bx r
bx q
bx p
bx o
bx0 n
b100110000000000000001101111 m
b0 l
bx k
b10000000000000000000000000000000 j
b0 i
b1100 h
bx000000000000000000000000000000000000000000000000000000000000000 g
bx000000000000000000000000000000000000000000000000000000000000000 f
xe
bx d
bx c
bx b
bx a
bx `
b11 _
bx ^
bx0 ]
x\
bx [
bx Z
bx0 Y
0X
bx W
b0 V
0U
b0 T
b0 S
0R
b0 Q
0P
bx O
b11 N
0M
bx L
0K
bx J
bx I
0H
b110100001000000010111101110011 G
b10000000000000000000000000000100 F
b0 E
bx D
0C
b100110000000000000001101111 B
b10000000000000000000000000000000 A
b0 @
b1100 ?
1>
0=
bx <
b0 ;
1:
b0 9
bx 8
bx 7
b0 6
05
x4
bz 3
bz 2
01
b0 0
bx /
0.
0-
b0 ,
bx +
0*
z)
z(
1'
bz &
z%
1$
z#
bz "
z!
$end
#5000
0$
#10000
b1100 o
b1100 p
1z
b0 f
b10000000000000000000000001001100 L
b10000000000000000000000001001100 :"
b10000000000000000000000001001100 E"
0e
b1100 v
b1100 g
b0 q
b0 r
0s
b1001100 y
b1000000 u
b1000000 t
b1001100 n
b1001100 b
b1000000 ^
b1000000 ]
b0 Z
b1001100 Y
b0 [
0\
1M
b10000000000000000000000000000100 I
b10000000000000000000000000000100 c
b10000000000000000000000000000100 >"
b10000000000000000000000000000100 Q"
b0 J
b0 d
b0 ="
b0 P"
b10 ?
b10 h
b10 T"
b100000000000111110010011 G
b100000000000111110010011 D"
b100000000000111110010011 R"
0{
b1100 w
b1100 <"
1K
b100110000000000000001101111 W
b100110000000000000001101111 a
b100110000000000000001101111 2"
b10000000000000000000000000000000 O
b10000000000000000000000000000000 `
b10000000000000000000000000000000 8"
b10 Z"
b110100001000000010111101110011 B
b110100001000000010111101110011 m
b110100001000000010111101110011 W"
b10000000000000000000000000000100 A
b10000000000000000000000000000100 j
b10000000000000000000000000000100 X"
b10000000000000000000000000001000 F
b10000000000000000000000000001000 F"
b10000000000000000000000000001000 S"
1'
1:
1$
#15000
0$
#20000
b1000000000000000000000000000000000000000000000000000000000000000 f
1z
b10 o
b10 p
b11110001010000000010010101110011 G
b11110001010000000010010101110011 D"
b11110001010000000010010101110011 R"
b1000 ?
b1000 h
b1000 T"
b1101000010 y
b1101011110 u
b1101011110 t
b10001101000010 n
b10001101000010 Y
b1101011110 ]
b1101011110 ^
b1101000010 b
b0 }
b111111111111 |
b0 I
b0 c
b0 >"
b0 Q"
b11110 J
b11110 d
b11110 ="
b11110 P"
0H
0M
b10 v
b1000000000000000000000000000000000000000000000000000000000000010 g
1'
1:
b10000000000000000000000001001100 F
b10000000000000000000000001001100 F"
b10000000000000000000000001001100 S"
b10000000000000000000000000001000 A
b10000000000000000000000000001000 j
b10000000000000000000000000001000 X"
b100000000000111110010011 B
b100000000000111110010011 m
b100000000000111110010011 W"
b1000 Z"
b10000000000000000000000000000100 O
b10000000000000000000000000000100 `
b10000000000000000000000000000100 8"
b110100001000000010111101110011 W
b110100001000000010111101110011 a
b110100001000000010111101110011 2"
0@"
0K
b10 w
b10 <"
b10000000000000000000000000000100 B"
b0 A"
1$
#25000
0$
#30000
b1000 o
b1000 p
b0 f
b1000 v
b1000 g
b1000 y
b11111 u
b100000011110 t
b1000 n
b1000 Y
b100000011110 ]
b11111 ^
b1000 b
b1000 I
b1000 c
b1000 >"
b1000 Q"
b11111 J
b11111 d
b11111 ="
b11111 P"
0H
b10100 ?
b10100 h
b10100 T"
b1010001000001100011 G
b1010001000001100011 D"
b1010001000001100011 R"
b11110 A"
b0 B"
b1000 w
b1000 <"
1@"
b100000000000111110010011 W
b100000000000111110010011 a
b100000000000111110010011 2"
b10000000000000000000000000001000 O
b10000000000000000000000000001000 `
b10000000000000000000000000001000 8"
b10100 Z"
b11110001010000000010010101110011 B
b11110001010000000010010101110011 m
b11110001010000000010010101110011 W"
b10000000000000000000000001001100 A
b10000000000000000000000001001100 j
b10000000000000000000000001001100 X"
b10000000000000000000000001010000 F
b10000000000000000000000001010000 F"
b10000000000000000000000001010000 S"
1'
1:
1$
#35000
0$
#40000
b10100 o
b10100 p
b1000000000000000000000000000000000000000000000000000000000000000 f
1z
b10100 v
b1010010111 G
b1010010111 D"
b1010010111 R"
b0 @
b0 i
b0 U"
b0 ?
b0 h
b0 T"
b1111111111111111111111111111111111111111111111111111 q
b11111111111111111111111111111111111111111111 r
1s
b1111111111111111111111111111111111111111111111111111111100010100 y
b1111111111111111111111111111111111111111111111111111111100001010 u
b1111111111111111111111111111111111111111111111111111011100001010 t
b1111111111111111111111111111111111111111111100000010011100010100 n
b1111111111111111111111111111111111111111111111111111111100010100 b
b1111111111111111111111111111111111111111111111111111111100001010 ^
b1111111111111111111111111111111111111111111111111111011100001010 ]
b1111111111111111111111111111111111111111111111111111 Z
b1111111111111111111111111111111111111111111100000010011100010100 Y
b11111111111111111111111111111111111111111111 [
1\
b111111111111 |
b0 I
b0 c
b0 >"
b0 Q"
b1010 J
b1010 d
b1010 ="
b1010 P"
1H
b1000000000000000000000000000000000000000000000000000000000010100 g
1'
1:
b10000000000000000000000001010100 F
b10000000000000000000000001010100 F"
b10000000000000000000000001010100 S"
b10000000000000000000000001010000 A
b10000000000000000000000001010000 j
b10000000000000000000000001010000 X"
b1010001000001100011 B
b1010001000001100011 m
b1010001000001100011 W"
b1010 Y"
b0 Z"
b10000000000000000000000001001100 O
b10000000000000000000000001001100 `
b10000000000000000000000001001100 8"
b11110001010000000010010101110011 W
b11110001010000000010010101110011 a
b11110001010000000010010101110011 2"
1K
b10100 w
b10100 <"
b1000 B"
b11111 A"
1$
#45000
0$
#50000
b0 o
b0 p
b0 f
b0 v
0z
b0 g
b0 q
b0 r
0s
b0 y
b0 u
b0 t
b1010001000000000000 n
b0 b
b0 ^
b0 ]
b0 Z
b1010001000000000000 Y
b0 [
0\
b10000000000000000000000001010000 L
b10000000000000000000000001010000 :"
b10000000000000000000000001010000 E"
0H
b1000000101000001010010011 G
b1000000101000001010010011 D"
b1000000101000001010010011 R"
1C"
b1010 A"
b0 B"
1{
b0 w
b0 <"
b1010001000001100011 W
b1010001000001100011 a
b1010001000001100011 2"
b10000000000000000000000001010000 O
b10000000000000000000000001010000 `
b10000000000000000000000001010000 8"
b0 Y"
b1010010111 B
b1010010111 m
b1010010111 W"
b10000000000000000000000001010100 A
b10000000000000000000000001010100 j
b10000000000000000000000001010100 X"
b10000000000000000000000001011000 F
b10000000000000000000000001011000 F"
b10000000000000000000000001011000 S"
1'
1:
1$
#55000
0$
#60000
1e
b110000010100101001000001110011 G
b110000010100101001000001110011 D"
b110000010100101001000001110011 R"
b10000000000000000000000001010100 @
b10000000000000000000000001010100 i
b10000000000000000000000001010100 U"
b10000 ?
b10000 h
b10000 T"
b101 u
b100000000100 t
b0 n
b0 Y
b100000000100 ]
b101 ^
b10000000000000000000000001010100 I
b10000000000000000000000001010100 c
b10000000000000000000000001010100 >"
b10000000000000000000000001010100 Q"
b101 J
b101 d
b101 ="
b101 P"
1H
1'
1:
b10000000000000000000000001011100 F
b10000000000000000000000001011100 F"
b10000000000000000000000001011100 S"
b10000000000000000000000001011000 A
b10000000000000000000000001011000 j
b10000000000000000000000001011000 X"
b1000000101000001010010011 B
b1000000101000001010010011 m
b1000000101000001010010011 W"
b101 Y"
b10000 Z"
b10000000000000000000000001010100 O
b10000000000000000000000001010100 `
b10000000000000000000000001010100 8"
b1010010111 W
b1010010111 a
b1010010111 2"
0C"
1$
#65000
0$
#70000
b10000000000000000000000001100100 @
b10000000000000000000000001100100 i
b10000000000000000000000001100100 U"
0e
b1111111111111111111111111111111110000000000000000000000001100100 o
b10000000000000000000000001100100 p
b10000000000000000000000001100100 I
b10000000000000000000000001100100 c
b10000000000000000000000001100100 >"
b10000000000000000000000001100100 Q"
b10000 v
b10000 g
b10000000000000000000000001010100 f
b10000 y
b101000000000010000 n
b101000000000010000 Y
b10000 b
1H
b10000000000000000000000001100100 ?
b10000000000000000000000001100100 h
b10000000000000000000000001100100 T"
b11000000000000101000001110011 G
b11000000000000101000001110011 D"
b11000000000000101000001110011 R"
1C"
b101 A"
b10000000000000000000000001010100 B"
b10000 w
b10000 <"
0{
b10000000000000000000000001010100 x
b10000000000000000000000001010100 ;"
b1000000101000001010010011 W
b1000000101000001010010011 a
b1000000101000001010010011 2"
b10000000000000000000000001011000 O
b10000000000000000000000001011000 `
b10000000000000000000000001011000 8"
b101 Z"
b110000010100101001000001110011 B
b110000010100101001000001110011 m
b110000010100101001000001110011 W"
b10000000000000000000000001011100 A
b10000000000000000000000001011100 j
b10000000000000000000000001011100 X"
b10000000000000000000000001100000 F
b10000000000000000000000001100000 F"
b10000000000000000000000001100000 S"
1'
1:
1$
#75000
0$
#80000
b10000000000000000000000001100100 v
b11001000 o
b11001000 p
b0 @
b0 i
b0 U"
b0 ?
b0 h
b0 T"
b1010010111 G
b1010010111 D"
b1010010111 R"
b1100000101 y
b1100000000 u
b1100000000 t
b101001101100000100 n
b101001101100000100 Y
b1100000000 ]
b1100000000 ^
b1100000101 b
b100000000 1"
b10000000000000000000000001100100 f
b10000000000000000000000001100100 }
b1100000101 |
b100000000 I
b100000000 c
b100000000 >"
b100000000 Q"
b0 J
b0 d
b0 ="
b0 P"
0H
0z
b10000000000000000000000001100100 g
1'
1:
b10000000000000000000000001100100 F
b10000000000000000000000001100100 F"
b10000000000000000000000001100100 S"
b10000000000000000000000001100000 A
b10000000000000000000000001100000 j
b10000000000000000000000001100000 X"
b11000000000000101000001110011 B
b11000000000000101000001110011 m
b11000000000000101000001110011 W"
b0 Y"
b0 Z"
b10000000000000000000000001011100 O
b10000000000000000000000001011100 `
b10000000000000000000000001011100 8"
b110000010100101001000001110011 W
b110000010100101001000001110011 a
b110000010100101001000001110011 2"
1{
b10000000000000000000000001100100 x
b10000000000000000000000001100100 ;"
b10000000000000000000000001100100 w
b10000000000000000000000001100100 <"
b10000000000000000000000001100100 B"
1$
#85000
0$
#90000
1e
b0 o
b0 p
b0 I
b0 c
b0 >"
b0 Q"
b0 v
b0 g
0z
b0 f
b110000000 y
b110000000 u
b110000000 t
b101000110000000 n
b101000110000000 Y
b110000000 ]
b110000000 ^
b110000000 b
b0 1"
b0 }
b110000000 |
b1110000101000001010010011 G
b1110000101000001010010011 D"
b1110000101000001010010011 R"
b10000000000000000000000001100100 ."
0C"
b0 A"
b100000000 B"
b0 w
b0 <"
1{
b0 x
b0 ;"
b11000000000000101000001110011 W
b11000000000000101000001110011 a
b11000000000000101000001110011 2"
b10000000000000000000000001100000 O
b10000000000000000000000001100000 `
b10000000000000000000000001100000 8"
b1010010111 B
b1010010111 m
b1010010111 W"
b10000000000000000000000001100100 A
b10000000000000000000000001100100 j
b10000000000000000000000001100100 X"
b10000000000000000000000001101000 F
b10000000000000000000000001101000 F"
b10000000000000000000000001101000 S"
1'
1:
1$
#95000
0$
#100000
1e
b110000010100101001000001110011 G
b110000010100101001000001110011 D"
b110000010100101001000001110011 R"
b10000000000000000000000001100100 @
b10000000000000000000000001100100 i
b10000000000000000000000001100100 U"
b11100 ?
b11100 h
b11100 T"
b0 y
b101 u
b100000000100 t
b0 n
b0 Y
b100000000100 ]
b101 ^
b0 b
b10000000000000000000000001100100 I
b10000000000000000000000001100100 c
b10000000000000000000000001100100 >"
b10000000000000000000000001100100 Q"
b101 J
b101 d
b101 ="
b101 P"
1H
b111111111111 |
1'
1:
b10000000000000000000000001101100 F
b10000000000000000000000001101100 F"
b10000000000000000000000001101100 S"
b10000000000000000000000001101000 A
b10000000000000000000000001101000 j
b10000000000000000000000001101000 X"
b1110000101000001010010011 B
b1110000101000001010010011 m
b1110000101000001010010011 W"
b101 Y"
b11100 Z"
b10000000000000000000000001100100 O
b10000000000000000000000001100100 `
b10000000000000000000000001100100 8"
b1010010111 W
b1010010111 a
b1010010111 2"
b0 B"
1$
#105000
0$
#110000
b10000000000000000000000010000000 @
b10000000000000000000000010000000 i
b10000000000000000000000010000000 U"
0e
b1111111111111111111111111111111110000000000000000000000010000000 o
b10000000000000000000000010000000 p
b10000000000000000000000010000000 I
b10000000000000000000000010000000 c
b10000000000000000000000010000000 >"
b10000000000000000000000010000000 Q"
b11100 v
b11100 g
b10000000000000000000000001100100 f
b11100 y
b101000000000011100 n
b101000000000011100 Y
b11100 b
1H
b10000000000000000000000010000000 ?
b10000000000000000000000010000000 h
b10000000000000000000000010000000 T"
b11111111111100000000001010010011 G
b11111111111100000000001010010011 D"
b11111111111100000000001010010011 R"
1C"
b101 A"
b10000000000000000000000001100100 B"
b11100 w
b11100 <"
0{
b10000000000000000000000001100100 x
b10000000000000000000000001100100 ;"
b1110000101000001010010011 W
b1110000101000001010010011 a
b1110000101000001010010011 2"
b10000000000000000000000001101000 O
b10000000000000000000000001101000 `
b10000000000000000000000001101000 8"
b101 Z"
b110000010100101001000001110011 B
b110000010100101001000001110011 m
b110000010100101001000001110011 W"
b10000000000000000000000001101100 A
b10000000000000000000000001101100 j
b10000000000000000000000001101100 X"
b10000000000000000000000001110000 F
b10000000000000000000000001110000 F"
b10000000000000000000000001110000 S"
1'
1:
1$
#115000
0$
#120000
b10000000000000000000000010000000 v
b100000000 o
b100000000 p
b0 @
b0 i
b0 U"
b11111 ?
b11111 h
b11111 T"
b111011000000101001000001110011 G
b111011000000101001000001110011 D"
b111011000000101001000001110011 R"
b1100000101 y
b1100000000 u
b1100000000 t
b101001101100000100 n
b101001101100000100 Y
b1100000000 ]
b1100000000 ^
b1100000101 b
b10000000000000000000000001100100 1"
b10000000000000000000000010000000 f
b10000000000000000000000010000000 }
b1100000101 |
b10000000000000000000000001100100 I
b10000000000000000000000001100100 c
b10000000000000000000000001100100 >"
b10000000000000000000000001100100 Q"
b0 J
b0 d
b0 ="
b0 P"
0H
0z
b10000000000000000000000010000000 g
1'
1:
b10000000000000000000000001110100 F
b10000000000000000000000001110100 F"
b10000000000000000000000001110100 S"
b10000000000000000000000001110000 A
b10000000000000000000000001110000 j
b10000000000000000000000001110000 X"
b11111111111100000000001010010011 B
b11111111111100000000001010010011 m
b11111111111100000000001010010011 W"
b0 Y"
b11111 Z"
b10000000000000000000000001101100 O
b10000000000000000000000001101100 `
b10000000000000000000000001101100 8"
b110000010100101001000001110011 W
b110000010100101001000001110011 a
b110000010100101001000001110011 2"
1{
b10000000000000000000000010000000 x
b10000000000000000000000010000000 ;"
b10000000000000000000000010000000 w
b10000000000000000000000010000000 <"
b10000000000000000000000010000000 B"
1$
#125000
0$
#130000
b1111111111111111111111111111111111111111111111111111111111111111 o
b11111111111111111111111111111111 p
b1111111111111111111111111111111111111111111111111111111111111111 v
b11111 g
1z
b0 f
b1111111111111111111111111111111111111111111111111111 q
b11111111111111111111111111111111111111111111 r
1s
b1111111111111111111111111111111111111111111111111111111111111111 y
b1111111111111111111111111111111111111111111111111111111111100101 u
b1111111111111111111111111111111111111111111111111111111111100100 t
b1111111111111111111111111111111111111111111100000000111111111110 n
b1111111111111111111111111111111111111111111111111111111111111111 b
b1111111111111111111111111111111111111111111111111111111111100101 ^
b1111111111111111111111111111111111111111111111111111111111100100 ]
b1111111111111111111111111111111111111111111111111111 Z
b1111111111111111111111111111111111111111111100000000111111111110 Y
b11111111111111111111111111111111111111111111 [
1\
b0 1"
b1111111111111111111111111111111111111111111111111111111111111111 I
b1111111111111111111111111111111111111111111111111111111111111111 c
b1111111111111111111111111111111111111111111111111111111111111111 >"
b1111111111111111111111111111111111111111111111111111111111111111 Q"
b101 J
b101 d
b101 ="
b101 P"
1H
b111111111111 |
b10000 ?
b10000 h
b10000 T"
b1111111111111111111111111111111111111111111111111111111111111111 @
b1111111111111111111111111111111111111111111111111111111111111111 i
b1111111111111111111111111111111111111111111111111111111111111111 U"
b1111100000000001010010011 G
b1111100000000001010010011 D"
b1111100000000001010010011 R"
b10000000000000000000000010000000 ."
0C"
b0 A"
b10000000000000000000000001100100 B"
b11111 w
b11111 <"
0{
b0 x
b0 ;"
b11111111111100000000001010010011 W
b11111111111100000000001010010011 a
b11111111111100000000001010010011 2"
b10000000000000000000000001110000 O
b10000000000000000000000001110000 `
b10000000000000000000000001110000 8"
b10000 Z"
b101 Y"
b111011000000101001000001110011 B
b111011000000101001000001110011 m
b111011000000101001000001110011 W"
b10000000000000000000000001110100 A
b10000000000000000000000001110100 j
b10000000000000000000000001110100 X"
b10000000000000000000000001111000 F
b10000000000000000000000001111000 F"
b10000000000000000000000001111000 S"
1'
1:
1$
#135000
0$
#140000
b10000 v
1e
b1111 o
b1111 p
b0 @
b0 i
b0 U"
b111010000000101001000001110011 G
b111010000000101001000001110011 D"
b111010000000101001000001110011 R"
b11111 ?
b11111 h
b11111 T"
b0 q
b0 r
0s
b1110110000 y
b1110100000 u
b1110100000 t
b101001001110110000 n
b1110110000 b
b1110100000 ^
b1110100000 ]
b0 Z
b101001001110110000 Y
b0 [
0\
b1111111111111111111111111111111111111111111111111111111111111111 f
b1111111111111111111111111111111111111111111111111111111111111111 }
b1110110000 |
b0 I
b0 c
b0 >"
b0 Q"
b0 J
b0 d
b0 ="
b0 P"
0H
b10000 g
1'
1:
b10000000000000000000000001111100 F
b10000000000000000000000001111100 F"
b10000000000000000000000001111100 S"
b10000000000000000000000001111000 A
b10000000000000000000000001111000 j
b10000000000000000000000001111000 X"
b1111100000000001010010011 B
b1111100000000001010010011 m
b1111100000000001010010011 W"
b0 Y"
b11111 Z"
b10000000000000000000000001110100 O
b10000000000000000000000001110100 `
b10000000000000000000000001110100 8"
b111011000000101001000001110011 W
b111011000000101001000001110011 a
b111011000000101001000001110011 2"
b1111111111111111111111111111111111111111111111111111111111111111 x
b1111111111111111111111111111111111111111111111111111111111111111 ;"
b10000 w
b10000 <"
b1111111111111111111111111111111111111111111111111111111111111111 B"
b101 A"
1C"
1$
#145000
0$
#150000
b11111 o
b11111 p
0e
b11111 v
b11111 g
b0 f
b11111 y
b101 u
b100000000100 t
b100000011110 n
b100000011110 Y
b100000000100 ]
b101 ^
b11111 b
b11111 I
b11111 c
b11111 >"
b11111 Q"
b101 J
b101 d
b101 ="
b101 P"
1H
b111111111111 |
b0 ?
b0 h
b0 T"
b11111 @
b11111 i
b11111 U"
b1010010111 G
b1010010111 D"
b1010010111 R"
0C"
b0 A"
b0 B"
b11111 w
b11111 <"
b0 x
b0 ;"
b1111100000000001010010011 W
b1111100000000001010010011 a
b1111100000000001010010011 2"
b10000000000000000000000001111000 O
b10000000000000000000000001111000 `
b10000000000000000000000001111000 8"
b0 Z"
b101 Y"
b111010000000101001000001110011 B
b111010000000101001000001110011 m
b111010000000101001000001110011 W"
b10000000000000000000000001111100 A
b10000000000000000000000001111100 j
b10000000000000000000000001111100 X"
b10000000000000000000000010000000 F
b10000000000000000000000010000000 F"
b10000000000000000000000010000000 S"
1'
1:
1$
#155000
0$
#160000
b0 v
1e
b11111 o
b11111 p
b0 @
b0 i
b0 U"
b1100000101000001010010011 G
b1100000101000001010010011 D"
b1100000101000001010010011 R"
b1110100000 y
b1110100000 u
b1110100000 t
b101001001110100000 n
b101001001110100000 Y
b1110100000 ]
b1110100000 ^
b1110100000 b
b11111 f
b11111 }
b1110100000 |
b0 I
b0 c
b0 >"
b0 Q"
b0 J
b0 d
b0 ="
b0 P"
0H
0z
b0 g
1'
1:
b10000000000000000000000010000100 F
b10000000000000000000000010000100 F"
b10000000000000000000000010000100 S"
b10000000000000000000000010000000 A
b10000000000000000000000010000000 j
b10000000000000000000000010000000 X"
b1010010111 B
b1010010111 m
b1010010111 W"
b0 Y"
b10000000000000000000000001111100 O
b10000000000000000000000001111100 `
b10000000000000000000000001111100 8"
b111010000000101001000001110011 W
b111010000000101001000001110011 a
b111010000000101001000001110011 2"
b11111 x
b11111 ;"
0{
b0 w
b0 <"
b11111 B"
b101 A"
1C"
1$
#165000
0$
#170000
b0 o
b0 p
b0 f
b0 y
b101 u
b100000000100 t
b0 n
b0 Y
b100000000100 ]
b101 ^
b0 b
b10000000000000000000000010000000 I
b10000000000000000000000010000000 c
b10000000000000000000000010000000 >"
b10000000000000000000000010000000 Q"
b101 J
b101 d
b101 ="
b101 P"
1H
b111111111111 |
b11000 ?
b11000 h
b11000 T"
b10000000000000000000000010000000 @
b10000000000000000000000010000000 i
b10000000000000000000000010000000 U"
b110000010100101001000001110011 G
b110000010100101001000001110011 D"
b110000010100101001000001110011 R"
0C"
b0 A"
b0 B"
1{
b0 x
b0 ;"
b1010010111 W
b1010010111 a
b1010010111 2"
b10000000000000000000000010000000 O
b10000000000000000000000010000000 `
b10000000000000000000000010000000 8"
b11000 Z"
b101 Y"
b1100000101000001010010011 B
b1100000101000001010010011 m
b1100000101000001010010011 W"
b10000000000000000000000010000100 A
b10000000000000000000000010000100 j
b10000000000000000000000010000100 X"
b10000000000000000000000010001000 F
b10000000000000000000000010001000 F"
b10000000000000000000000010001000 S"
1'
1:
1$
#175000
0$
